{
  "login": "system",
  "password": "$2a$10$mE.qmcV0mFU5NcKh73TZx.z4ueI/.bDWbj0T1BYyqP481kGGarKLG",

  "first_name": "System",
  "last_name": "System",
  "email": "system@localhost",
  "activated": true,
  "lang_key": "en",
  "created_by": "system",
  "last_modified_by": "system",
  "authorities": ["ROLE_USER", "ROLE_ADMIN"],
  "_class": "com.herc.taskcenter.domain.User"
}
